/* XPM */
static char *layout_content[] = {
/* columns rows colors chars-per-pixel */
"16 16 92 1",
"  c #43933E",
". c #459440",
"X c #469541",
"o c #499844",
"O c #499944",
"+ c #4C9B46",
"@ c #4C9C47",
"# c #4D9C47",
"$ c #509F4A",
"% c #509F4B",
"& c #52A14C",
"* c #53A24D",
"= c #54A34E",
"- c #55A44F",
"; c #56A550",
": c #57A651",
"> c #59A852",
", c #59A853",
"< c #5DAB56",
"1 c #78C76E",
"2 c #7AC86F",
"3 c #7BC970",
"4 c #7CC971",
"5 c #7CCA72",
"6 c #7DCA72",
"7 c #7DCA73",
"8 c #7DCB73",
"9 c #7ECB74",
"0 c #2B64AD",
"q c #2C67AF",
"w c #2E6CB2",
"e c #336EB4",
"r c #3873B6",
"t c #4D6EA4",
"y c #4D6EA6",
"u c #4D6EA7",
"i c #4E6FA7",
"p c #4E6FA8",
"a c #4F71A8",
"s c #4F71AA",
"d c #4F72AD",
"f c #5072AC",
"g c #4076B7",
"h c #4A7CBA",
"j c #4C7DBA",
"k c #5074B1",
"l c #5176B2",
"z c #5176B4",
"x c #5177B6",
"c c #5378B6",
"v c #5379BA",
"b c #547CB9",
"n c #537BBC",
"m c #547CBD",
"M c #557EBC",
"N c #547FBC",
"B c #557DBE",
"V c #5781BE",
"C c #5580C0",
"Z c #5882C2",
"A c #5884C1",
"S c #5A86C4",
"D c #5B86C5",
"F c #5A88C7",
"G c #5B8AC8",
"H c #5C8CCA",
"J c #5D8ECB",
"K c #5F8ECB",
"L c #5E90CC",
"P c #5F90CC",
"I c #5F91CD",
"U c #5F92CD",
"Y c #5F93CD",
"T c #5F93CE",
"R c #618CC6",
"E c #6191CB",
"W c #6492CA",
"Q c #6192CD",
"! c #6393CD",
"~ c #749FCD",
"^ c #75A0CD",
"/ c #7EA5D0",
"( c #83A6D1",
") c #89AAD6",
"_ c #8BACD7",
"` c #8BAED8",
"' c #9BC4ED",
"] c #9CC4ED",
"[ c #C1DAF4",
"{ c #C2DBF4",
"} c gray100",
"| c None",
/* pixels */
"||||||||||||||||",
"||TTTYUPQ!EKW`_|",
"|T}}}}}}}}}}}})|",
"|T}]]]'''''''}R|",
"|I}][[{{{{{{'}A|",
"|L}''''''''''}V|",
"|J}}}}}}}}}}}}M|",
"|H}Njh}+,:-*$}b|",
"|G}g(r}>8853#}c|",
"|F}e/w};9853O}l|",
"|D}q^0}=7642X}f|",
"|S}q~0}%3321 }a|",
"|Z}q00}<:&@o.}i|",
"|C}}}}}}}}}}}}y|",
"|Bmnvxzkdspuyty|",
"||||||||||||||||"
};
