id,Rech,Benutz.,Datum,Betrag,Addr.,Kassenstand,Tageseinnahmen,,sum,,sum,sum
,,,,,,,,,,sum,,
43384,90451,doris,14.12.15 ,11.0, ,"11,00","11,00",,,,,
43383,90450,sophia,14.12.15 ,21.0, ,"32,00","32,00",,,,,
43382,90449,bianka,14.12.15 ,9.5, ,"41,50","41,50",,,,,
43381,90448,bianka,14.12.15 ,3.0, ,"44,50","44,50",,,,,
43380,90447,doris,14.12.15 ,20.0, ,"64,50","64,50",,,,,
43379,90446,bianka,14.12.15 ,5.0, ,"69,50","69,50",,,,,
43378,90445,bianka,14.12.15 ,42.9, ,"112,40","112,40",,,,,
43377,90444,doris,14.12.15 ,3.5, ,"115,90","115,90",,,,,
43376,90443,bianka,14.12.15 ,10.0, ,"125,90","125,90",,,,,
43375,90442,bianka,14.12.15 ,28.0, ,"153,90","153,90",,,,,
43374,90439,doris,14.12.15 ,25.0, ,"178,90","178,90",,,,,
43373,90441,sophia,14.12.15 ,9.5, ,"188,40","188,40",,,,,
43372,90440,carmen,14.12.15 ,13.0, ,"201,40","201,40",,,,,
43371,90438,carmen,14.12.15 ,20.8, ,"222,20","222,20",,,,,
43370,90437,doris,14.12.15 ,32.74, ,"254,94","254,94",,,,,
43369,90436,doris,14.12.15 ,13.0, ,"267,94","267,94",,,,,
43368,90435,bianka,14.12.15 ,6.5, ,"274,44","274,44",,,,,
43367,90434,doris,14.12.15 ,17.95, ,"292,39","292,39",,,,,
43366,90433,carmen,14.12.15 ,4.0, ,"296,39","296,39",,,,,
43365,0,doris,14.12.15 ,-145.79,"Bezold,  Fürth","150,60","296,39",,,,,
43364,90431,doris,14.12.15 ,55.0, ,"205,60","351,39",,,,,
43363,90429,bianka,14.12.15 ,3.8, ,"209,40","355,19",,,,,
43362,90428,doris,14.12.15 ,13.5, ,"222,90","368,69",,,,,
43361,90427,doris,14.12.15 ,11.5, ,"234,40","380,19",,,,,
43360,90426,sophia,14.12.15 ,15.5, ,"249,90","395,69",,,,,
43359,90424,bianka,14.12.15 ,8.4, ,"258,30","404,09",,,,,
43358,90423,doris,14.12.15 ,13.5, ,"271,80","417,59",,,,,
43357,90420,carmen,14.12.15 ,15.0, ,"286,80","432,59",,,,,
43356,90422,doris,14.12.15 ,22.0, ,"308,80","454,59",,,,,
43355,90421,bianka,14.12.15 ,50.0, ,"358,80","504,59",,,,,
43354,90419,bianka,14.12.15 ,17.5, ,"376,30","522,09",,,,,
43353,90418,bianka,14.12.15 ,5.8, ,"382,10","527,89",,,,,
43352,90416,doris,14.12.15 ,48.0, ,"430,10","575,89",,,,,
43351,90417,sophia,14.12.15 ,24.8, ,"454,90","600,69",,,,,
43350,90415,doris,14.12.15 ,8.9, ,"463,80","609,59",,,,,
43349,90414,bianka,14.12.15 ,3.8, ,"467,60","613,39",,,,,
Dienstag 15 ,,,,,,,, 3,,,,
id,Rech,Benutz.,Datum,Betrag,Addr.,Kassenstand,Tageseinnahmen,,sum,,sum,sum
,,,,,,,,,,sum,,
43348,90413,doris,14.12.15 ,24.8, ,"492,40","638,19",,,,,
43347,90412,sophia,14.12.15 ,12.0, ,"504,40","650,19",,,,,
43346,90410,carmen,14.12.15 ,14.0, ,"518,40","664,19",,,,,
43345,90409,sophia,14.12.15 ,6.0, ,"524,40","670,19",,,,,
43344,90408,sophia,14.12.15 ,63.95, ,"588,35","734,14",,,,,
43343,90407,doris,14.12.15 ,15.0, ,"603,35","749,14",,,,,
43342,90406,doris,14.12.15 ,15.0, ,"618,35","764,14",,,,,
43341,90405,doris,14.12.15 ,15.0, ,"633,35","779,14",,,,,
43340,90403,doris,14.12.15 ,20.94, ,"654,29","800,08",,,,,
43339,90402,bianka,14.12.15 ,31.4, ,"685,69","831,48",,,,,
43338,90401,bianka,14.12.15 ,80.0, ,"765,69","911,48",,,,,
43308,90371,bianka,14.12.15 ,34.32, ,"800,01","945,80",,,,,
43307,90369,bianka,14.12.15 ,1.1, ,"801,11","946,90",,,,,
43306,90370,jacqueline,14.12.15 ,16.8, ,"817,91","963,70",,,,,
43305,90367,doris,14.12.15 ,26.6, ,"844,51","990,30",,,,,
43304,90366,bianka,14.12.15 ,5.5, ,"850,01","995,80",,,,,
43303,90364,bianka,14.12.15 ,12.6, ,"862,61","1008,40",,,,,
43302,90365,doris,14.12.15 ,12.0, ,"874,61","1020,40",,,,,
43301,90362,jacqueline,14.12.15 ,34.0, ,"908,61","1054,40",,,,,
43300,90361,doris,14.12.15 ,26.99, ,"935,60","1081,39",,,,,
43299,90359,carmen,14.12.15 ,25.0, ,"960,60","1106,39",,,,,
43298,90358,carmen,14.12.15 ,8.5, ,"969,10","1114,89",,,,,
43297,90357,doris,14.12.15 ,10.5, ,"979,60","1125,39",,,,,
43296,90356,doris,14.12.15 ,3.5, ,"983,10","1128,89",,,,,
43295,90355,doris,14.12.15 ,2.5, ,"985,60","1131,39",,,,,
43294,90354,carmen,14.12.15 ,31.0, ,"1016,60","1162,39",,,,,
43293,90353,jacqueline,14.12.15 ,12.0, ,"1028,60","1174,39",,,,,
43292,90352,bianka,14.12.15 ,21.5, ,"1050,10","1195,89",,,,,
43291,90351,jacqueline,14.12.15 ,8.0, ,"1058,10","1203,89",,,,,
43290,90349,carmen,14.12.15 ,14.0, ,"1072,10","1217,89",,,,,
43289,90350,bianka,14.12.15 ,14.0, ,"1086,10","1231,89",,,,,
43288,90348,doris,14.12.15 ,17.0, ,"1103,10","1248,89",,,,,
43287,90347,doris,14.12.15 ,50.0, ,"1153,10","1298,89",,,,,
43286,90345,doris,14.12.15 ,12.0, ,"1165,10","1310,89",,,,,
43285,90346,carmen,14.12.15 ,20.0, ,"1185,10","1330,89",,,,,
43284,90344,doris,14.12.15 ,10.5, ,"1195,60","1341,39",,,,,
Dienstag 15 ,,,,,,,, 3,,,,
id,Rech,Benutz.,Datum,Betrag,Addr.,Kassenstand,Tageseinnahmen,,sum,,sum,sum
,,,,,,,,,,sum,,
43283,90343,bianka,14.12.15 ,3.5, ,"1199,10","1344,89",,,,,
43282,90342,jacqueline,14.12.15 ,16.0, ,"1215,10","1360,89",,,,,
43281,90341,bianka,14.12.15 ,6.0, ,"1221,10","1366,89",,,,,
43280,90340,carmen,14.12.15 ,8.0, ,"1229,10","1374,89",,,,,
43279,90339,carmen,14.12.15 ,30.0, ,"1259,10","1404,89",,,,,
43278,90337,doris,14.12.15 ,41.5, ,"1300,60","1446,39",,,,,
43277,90338,bianka,14.12.15 ,7.0, ,"1307,60","1453,39",,,,,
43276,90336,bianka,14.12.15 ,8.5, ,"1316,10","1461,89",,,,,
43275,90335,doris,14.12.15 ,3.0, ,"1319,10","1464,89",,,,,
43274,90334,bianka,14.12.15 ,34.0, ,"1353,10","1498,89",,,,,
43273,90333,jacqueline,14.12.15 ,11.1, ,"1364,20","1509,99",,,,,
43272,90332,carmen,14.12.15 ,18.5, ,"1382,70","1528,49",,,,,
43271,90331,jacqueline,14.12.15 ,30.0, ,"1412,70","1558,49",,,,,
43270,90330,doris,14.12.15 ,11.0, ,"1423,70","1569,49",,,,,
43269,90329,bianka,14.12.15 ,50.0, ,"1473,70","1619,49",,,,,
43268,90328,jacqueline,14.12.15 ,39.0, ,"1512,70","1658,49",,,,,
43267,90327,bianka,14.12.15 ,12.5, ,"1525,20","1670,99",,,,,
43266,90326,bianka,14.12.15 ,21.49, ,"1546,69","1692,48",,,,,
43265,90324,doris,14.12.15 ,41.8, ,"1588,49","1734,28",,,,,
43264,90323,annette,14.12.15 ,19.8, ,"1608,29","1754,08",,,,,
43263,90322,annette,14.12.15 ,10.0, ,"1618,29","1764,08",,,,,
43262,90322,annette,14.12.15 ,0.0, ,"1618,29","1764,08",,,,,
Dienstag 15 ,,,,,,,, 3,,,,
